{
   "IsOpenNet" : 0,
   "NetPort" : 27781,
   "after_pass" : "",
   "max_count" : 5,
   "prev_pass" : "",
   "thread" : 5,
   "wallet_path" : "K:\\USE---THEM\\Analyse\\BTC_PassCrack_20210112\\BTC_PassCrack\\wallet.dat",
   "wordlist" : "test\r\nmy\r\nbtc\r\nwallet\r\npass\r\npassword\r\n1234\r\n123456\r\n888\r\n111\r\n1987\r\n0512\r\n87\r\naa\r\nabc\r\nabcd\r\n.\r\nqwe\r\nqwer\r\nasd\r\nasdf\r\n!@#\r\n!\r\n!@#$%^\r\n`\r\n~\r\n*\r\n",
   "wordlist_any" : "123\r\na\r\nA\r\n \r\n1\r\n2\r\n3\r\n0\r\n"
}
